Etapa 2 e 3
…
student_final_result_tbl

## # A tibble: 31,482 x 11
##    code_module code_presentation id_student gender region          highest_education  imd_band age_band num_of_prev_attem… disability final_result
##    <fct>       <fct>                  <dbl> <fct>  <fct>           <fct>              <ord>    <fct>                 <dbl> <fct>      <fct>       
##  1 Curso A     2013J                  11391 M      East Anglian R… HE Qualification   90-100%  55<=                      0 N          Pass        
##  2 Curso A     2013J                  28400 F      Scotland        HE Qualification   20-30%   35-55                     0 N          Pass        
##  3 Curso A     2013J                  30268 F      North Western … A Level or Equiva… 30-40%   35-55                     0 Y          Withdrawn   
##  4 Curso A     2013J                  31604 F      South East Reg… A Level or Equiva… 50-60%   35-55                     0 N          Pass        
##  5 Curso A     2013J                  32885 F      West Midlands … Lower Than A Level 50-60%   0-35                      0 N          Pass        
##  6 Curso A     2013J                  38053 M      Wales           A Level or Equiva… 80-90%   35-55                     0 N          Pass        
##  7 Curso A     2013J                  45462 M      Scotland        HE Qualification   30-40%   0-35                      0 N          Pass        
##  8 Curso A     2013J                  45642 F      North Western … A Level or Equiva… 90-100%  0-35                      0 N          Pass        
##  9 Curso A     2013J                  52130 F      East Anglian R… A Level or Equiva… 70-80%   0-35                      0 N          Pass        
## 10 Curso A     2013J                  57506 M      South Region    Lower Than A Level 70-80%   35-55                     0 N          Pass        
## # … with 31,472 more rows
…
